17 июня 2016 г.=12:04:02
Отправка СМС получателям: +7 (900) 000-00-42
Ответ: 
100
201624-1000002
balance=4538.67
Документация - http://sms.ru/?panel=api&subpanel=method&show=sms/send

22 июня 2016 г.=11:04:13
Отправка СМС получателям: +7 (904) 019-95-17
Ответ: 
100
201625-1000342
balance=4187.69
Документация - http://sms.ru/?panel=api&subpanel=method&show=sms/send

22 июня 2016 г.=17:22:47
Отправка СМС получателям: +7 (904) 019-95-17
Ответ: 
100
201625-1000346
balance=4185.34
Документация - http://sms.ru/?panel=api&subpanel=method&show=sms/send

22 июня 2016 г.=17:25:51
Отправка СМС получателям: +7 (904) 019-95-17
Ответ: 
100
201625-1000347
balance=4183.74
Документация - http://sms.ru/?panel=api&subpanel=method&show=sms/send

22 июня 2016 г.=17:28:11
Отправка СМС получателям: +7 (904) 019-95-17
Ответ: 
100
201625-1000348
balance=4182.14
Документация - http://sms.ru/?panel=api&subpanel=method&show=sms/send

22 июня 2016 г.=17:29:42
Отправка СМС получателям: +7 (904) 019-95-17
Ответ: 
100
201625-1000349
balance=4180.54
Документация - http://sms.ru/?panel=api&subpanel=method&show=sms/send

22 июня 2016 г.=17:30:33
Отправка СМС получателям: +7 (904) 019-95-17
Ответ: 
100
201625-1000350
balance=4178.94
Документация - http://sms.ru/?panel=api&subpanel=method&show=sms/send

22 июня 2016 г.=17:33:17
Отправка СМС получателям: +7 (904) 019-95-17
Ответ: 
100
201625-1000351
balance=4177.34
Документация - http://sms.ru/?panel=api&subpanel=method&show=sms/send

22 июня 2016 г.=17:37:18
Отправка СМС получателям: +7 (904) 019-95-17
Ответ: 
100
201625-1000352
balance=4175.74
Документация - http://sms.ru/?panel=api&subpanel=method&show=sms/send

22 июня 2016 г.=17:59:36
Отправка СМС получателям: +7 (904) 019-95-17
Ответ: 
100
201625-1000353
balance=4174.14
Документация - http://sms.ru/?panel=api&subpanel=method&show=sms/send

23 июня 2016 г.=10:31:15
Отправка СМС получателям: +7 (904) 019-95-17
Ответ: 
100
201625-1000354
balance=4172.54
Документация - http://sms.ru/?panel=api&subpanel=method&show=sms/send

23 июня 2016 г.=10:33:39
Отправка СМС получателям: +7 (910) 649-24-13
Ответ: 
100
201625-1000355
balance=4171.12
Документация - http://sms.ru/?panel=api&subpanel=method&show=sms/send

23 июня 2016 г.=10:34:51
Отправка СМС получателям: +7 (999) 000-00-00
Ответ: 
100
201625-1000356
balance=4169.7
Документация - http://sms.ru/?panel=api&subpanel=method&show=sms/send

23 июня 2016 г.=10:55:42
Отправка СМС получателям: +7 (999) 099-99-99
Ответ: 
100
201625-1000357
balance=4168.08
Документация - http://sms.ru/?panel=api&subpanel=method&show=sms/send

23 июня 2016 г.=12:05:39
Отправка СМС получателям: +7 (910) 649-24-13
Ответ: 
100
201625-1000358
balance=4166.66
Документация - http://sms.ru/?panel=api&subpanel=method&show=sms/send

23 июня 2016 г.=12:09:27
Отправка СМС получателям: +7 (910) 649-24-13
Ответ: 
100
201625-1000359
balance=4165.24
Документация - http://sms.ru/?panel=api&subpanel=method&show=sms/send

23 июня 2016 г.=12:14:16
Отправка СМС получателям: +7 (910) 649-24-13
Ответ: 
100
201625-1000360
balance=4163.82
Документация - http://sms.ru/?panel=api&subpanel=method&show=sms/send

23 июня 2016 г.=12:14:55
Отправка СМС получателям: +7 (910) 649-24-13
Ответ: 
100
201625-1000361
balance=4162.4
Документация - http://sms.ru/?panel=api&subpanel=method&show=sms/send

23 июня 2016 г.=12:20:16
Отправка СМС получателям: +7 (910) 649-24-13
Ответ: 
100
201625-1000362
balance=4160.98
Документация - http://sms.ru/?panel=api&subpanel=method&show=sms/send

23 июня 2016 г.=12:41:55
Отправка СМС получателям: +7 (910) 649-24-89
Ответ: 
100
201625-1000363
balance=4160.73
Документация - http://sms.ru/?panel=api&subpanel=method&show=sms/send

23 июня 2016 г.=14:12:26
Отправка СМС получателям: +7 (904) 019-95-17
Ответ: 
100
201625-1000364
balance=4159.13
Документация - http://sms.ru/?panel=api&subpanel=method&show=sms/send

23 июня 2016 г.=14:15:37
Отправка СМС получателям: +7 (904) 019-95-17
Ответ: 
100
201625-1000365
balance=4157.53
Документация - http://sms.ru/?panel=api&subpanel=method&show=sms/send

23 июня 2016 г.=15:11:43
Отправка СМС получателям: +7 (910) 649-24-13
Ответ: 
100
201625-1000366
balance=4156.11
Документация - http://sms.ru/?panel=api&subpanel=method&show=sms/send

28 июня 2016 г.=10:27:04
Отправка СМС получателям: +7 (999) 999-00-00
Ответ: 
100
201626-1000003
balance=4149.42
Документация - http://sms.ru/?panel=api&subpanel=method&show=sms/send

28 июня 2016 г.=10:28:36
Отправка СМС получателям: +7 (999) 999-99-00
Ответ: 
100
201626-1000004
balance=4148
Документация - http://sms.ru/?panel=api&subpanel=method&show=sms/send

28 июня 2016 г.=10:44:58
Отправка СМС получателям: +7 (999) 999-99-90
Ответ: 
100
201626-1000005
balance=4146.5
Документация - http://sms.ru/?panel=api&subpanel=method&show=sms/send

28 июня 2016 г.=10:46:48
Отправка СМС получателям: +7 (999) 990-99-99
Ответ: 
100
201626-1000006
balance=4145.08
Документация - http://sms.ru/?panel=api&subpanel=method&show=sms/send

28 июня 2016 г.=10:52:50
Отправка СМС получателям: +7 (909) 090-90-09
Ответ: 
100
201626-1000007
balance=4143.53
Документация - http://sms.ru/?panel=api&subpanel=method&show=sms/send

28 июня 2016 г.=10:53:49
Отправка СМС получателям: +7 (990) 000-99-09
Ответ: 
100
201626-1000008
balance=4143.28
Документация - http://sms.ru/?panel=api&subpanel=method&show=sms/send

28 июня 2016 г.=14:18:49
Отправка СМС получателям: +7 (999) 000-99-09
Ответ: 
100
201626-1000009
balance=4141.78
Документация - http://sms.ru/?panel=api&subpanel=method&show=sms/send

29 июня 2016 г.=12:10:24
Отправка СМС получателям: +7 (799) 911-11-11
Ответ: 
100
201626-1000010
balance=4139.98
Документация - http://sms.ru/?panel=api&subpanel=method&show=sms/send

5 июля 2016 г.=17:35:37
Отправка СМС получателям: +7 (900) 000-00-55
Ответ: 
100
201627-1000002
balance=3801.08
Документация - http://sms.ru/?panel=api&subpanel=method&show=sms/send

6 июля 2016 г.=10:21:55
Отправка СМС получателям: +7 (900) 000-00-51
Ответ: 
100
201627-1000004
balance=3797.93
Документация - http://sms.ru/?panel=api&subpanel=method&show=sms/send

6 июля 2016 г.=10:56:15
Отправка СМС получателям: +7 (900) 000-55-55
Ответ: 
100
201627-1000005
balance=3796.33
Документация - http://sms.ru/?panel=api&subpanel=method&show=sms/send

6 июля 2016 г.=10:56:32
Отправка СМС получателям: +7 (900) 000-55-54
Ответ: 
100
201627-1000006
balance=3794.73
Документация - http://sms.ru/?panel=api&subpanel=method&show=sms/send

6 июля 2016 г.=10:57:45
Отправка СМС получателям: +7 (900) 000-44-55
Ответ: 
100
201627-1000007
balance=3793.13
Документация - http://sms.ru/?panel=api&subpanel=method&show=sms/send

6 июля 2016 г.=11:00:41
Отправка СМС получателям: +7 (900) 000-77-75
Ответ: 
100
201627-1000008
balance=3791.53
Документация - http://sms.ru/?panel=api&subpanel=method&show=sms/send

6 июля 2016 г.=11:02:42
Отправка СМС получателям: +7 (900) 000-02-32
Ответ: 
100
201627-1000009
balance=3789.93
Документация - http://sms.ru/?panel=api&subpanel=method&show=sms/send

6 июля 2016 г.=11:03:30
Отправка СМС получателям: +7 (900) 045-00-00
Ответ: 
100
201627-1000010
balance=3789.24
Документация - http://sms.ru/?panel=api&subpanel=method&show=sms/send

6 июля 2016 г.=16:45:46
Отправка СМС получателям: +7 (910) 649-24-13
Ответ: 
100
201627-1000097
balance=3653.34
Документация - http://sms.ru/?panel=api&subpanel=method&show=sms/send

6 июля 2016 г.=16:48:01
Отправка СМС получателям: +7 (910) 649-24-13
Ответ: 
100
201627-1000117
balance=3622.18
Документация - http://sms.ru/?panel=api&subpanel=method&show=sms/send

6 июля 2016 г.=16:49:34
Отправка СМС получателям: +7 (910) 649-24-13
Ответ: 
100
201627-1000131
balance=3600.91
Документация - http://sms.ru/?panel=api&subpanel=method&show=sms/send

6 июля 2016 г.=16:50:31
Отправка СМС получателям: +7 (900) 000-00-00
Ответ: 
100
201627-1000134
balance=3596.07
Документация - http://sms.ru/?panel=api&subpanel=method&show=sms/send

6 июля 2016 г.=16:50:54
Отправка СМС получателям: +7 (900) 000-00-00
Ответ: 
100
201627-1000138
balance=3589.68
Документация - http://sms.ru/?panel=api&subpanel=method&show=sms/send

6 июля 2016 г.=16:52:48
Отправка СМС получателям: +7 (900) 000-00-00
Ответ: 
100
201627-1000155
balance=3562.98
Документация - http://sms.ru/?panel=api&subpanel=method&show=sms/send

6 июля 2016 г.=17:20:40
Отправка СМС получателям: +7 (900) 000-00-00
Ответ: 
100
201627-1000263
balance=3394.1
Документация - http://sms.ru/?panel=api&subpanel=method&show=sms/send

7 июля 2016 г.=15:13:32
Отправка СМС получателям: +7 (910) 649-24-13
Ответ: 
100
201627-1000265
balance=3391.26
Документация - http://sms.ru/?panel=api&subpanel=method&show=sms/send

8 июля 2016 г.=16:33:29
Отправка СМС получателям: +7 (910) 649-24-13
Ответ: 
100
201627-1000267
balance=3388.24
Документация - http://sms.ru/?panel=api&subpanel=method&show=sms/send

26 июля 2016 г.=9:19:11
Отправка СМС получателям: +7 (904) 019-95-17
Ответ: 
100
201630-1000000
balance=3373.06
Документация - http://sms.ru/?panel=api&subpanel=method&show=sms/send

